{
  "train_data_path": {
    "playing_data": "/test_resources/playing_data.csv",
    "programs_api_data": "/test_resources/pa_data.tsv"
  },
  "rec_method": {
    "user_to_user": {
      "name": "user to user"
    },
    "item_to_item": {
      "name": "item to item"
    }
  },
  "minimum_play_percentage": 0.4
}